…
EDA

The resulting tidy dataframe1 contains 852 observations and 3
observations. Variables are recorded date, dog’s name, and corresponding
weight.

``` r
data1%>%
  count(date, name="n_obs")%>%
  na.omit()
```

    ## # A tibble: 356 × 2
    ##    date       n_obs
    ##    <date>     <int>
    ##  1 2018-08-12     3
    ##  2 2018-08-19     4
    ##  3 2018-08-22     4
    ##  4 2018-08-24     4
    ##  5 2018-08-27     4
    ##  6 2018-08-29     4
    ##  7 2018-08-31     4
    ##  8 2018-09-02     4
    ##  9 2018-09-03     4
    ## 10 2018-09-04     4
    ## # … with 346 more rows
…
